[2019-08-20 15:39:10,707] {taskinstance.py:616} INFO - Dependencies all met for <TaskInstance: co2_temperature_humidity.read_and_transform 2019-06-15T18:00:00+00:00 [queued]>
[2019-08-20 15:39:10,714] {taskinstance.py:616} INFO - Dependencies all met for <TaskInstance: co2_temperature_humidity.read_and_transform 2019-06-15T18:00:00+00:00 [queued]>
[2019-08-20 15:39:10,715] {taskinstance.py:834} INFO - 
--------------------------------------------------------------------------------
[2019-08-20 15:39:10,715] {taskinstance.py:835} INFO - Starting attempt 2 of 2
[2019-08-20 15:39:10,715] {taskinstance.py:836} INFO - 
--------------------------------------------------------------------------------
[2019-08-20 15:39:10,728] {taskinstance.py:855} INFO - Executing <Task(PythonOperator): read_and_transform> on 2019-06-15T18:00:00+00:00
[2019-08-20 15:39:10,728] {base_task_runner.py:133} INFO - Running: ['airflow', 'run', 'co2_temperature_humidity', 'read_and_transform', '2019-06-15T18:00:00+00:00', '--job_id', '1431', '--pool', 'default_pool', '--raw', '-sd', 'DAGS_FOLDER/new_one.py', '--cfg_path', '/tmp/tmpjqHrEp']
[2019-08-20 15:39:11,384] {base_task_runner.py:115} INFO - Job 1431: Subtask read_and_transform [2019-08-20 15:39:11,384] {__init__.py:51} INFO - Using executor SequentialExecutor
[2019-08-20 15:39:11,697] {base_task_runner.py:115} INFO - Job 1431: Subtask read_and_transform [2019-08-20 15:39:11,696] {dagbag.py:90} INFO - Filling up the DagBag from /home/andrian/airflow/dags/new_one.py
[2019-08-20 15:39:11,706] {base_task_runner.py:115} INFO - Job 1431: Subtask read_and_transform /home/andrian/.local/lib/python2.7/site-packages/psycopg2/__init__.py:144: UserWarning: The psycopg2 wheel package will be renamed from release 2.8; in order to keep installing from binary please use "pip install psycopg2-binary" instead. For details see: <http://initd.org/psycopg/docs/install.html#binary-install-from-pypi>.
[2019-08-20 15:39:11,706] {base_task_runner.py:115} INFO - Job 1431: Subtask read_and_transform   """)
[2019-08-20 15:39:11,707] {base_task_runner.py:115} INFO - Job 1431: Subtask read_and_transform /home/andrian/.local/lib/python2.7/site-packages/airflow/utils/helpers.py:425: DeprecationWarning: Importing 'PostgresHook' directly from 'airflow.hooks' has been deprecated. Please import from 'airflow.hooks.[operator_module]' instead. Support for direct imports will be dropped entirely in Airflow 2.0.
[2019-08-20 15:39:11,707] {base_task_runner.py:115} INFO - Job 1431: Subtask read_and_transform   DeprecationWarning)
[2019-08-20 15:39:11,825] {base_task_runner.py:115} INFO - Job 1431: Subtask read_and_transform [2019-08-20 15:39:11,824] {baseoperator.py:348} WARNING - schedule_interval is used for <Task(PythonOperator): read_and_transform>, though it has been deprecated as a task parameter, you need to specify it as a DAG parameter instead
[2019-08-20 15:39:11,825] {base_task_runner.py:115} INFO - Job 1431: Subtask read_and_transform [2019-08-20 15:39:11,825] {baseoperator.py:348} WARNING - schedule_interval is used for <Task(PythonOperator): insert_to_db>, though it has been deprecated as a task parameter, you need to specify it as a DAG parameter instead
[2019-08-20 15:39:11,838] {base_task_runner.py:115} INFO - Job 1431: Subtask read_and_transform [2019-08-20 15:39:11,837] {cli.py:516} INFO - Running <TaskInstance: co2_temperature_humidity.read_and_transform 2019-06-15T18:00:00+00:00 [running]> on host alex-HP-EliteBook-820-G3
[2019-08-20 15:39:11,855] {python_operator.py:105} INFO - Exporting the following env vars:
AIRFLOW_CTX_TASK_ID=read_and_transform
AIRFLOW_CTX_DAG_ID=co2_temperature_humidity
AIRFLOW_CTX_EXECUTION_DATE=2019-06-15T18:00:00+00:00
AIRFLOW_CTX_DAG_RUN_ID=scheduled__2019-06-15T18:00:00+00:00
[2019-08-20 15:39:11,974] {python_operator.py:114} INFO - Done. Returned value was: None
[2019-08-20 15:39:15,713] {logging_mixin.py:95} INFO - [[34m2019-08-20 15:39:15,711[0m] {[34mlocal_task_job.py:[0m105} INFO[0m - Task exited with return code 0[0m
