[2019-08-20 17:04:46,904] {taskinstance.py:616} INFO - Dependencies all met for <TaskInstance: co2_temperature_humidity_v3.insert_to_db 2019-08-20T14:04:27.569403+00:00 [queued]>
[2019-08-20 17:04:46,914] {taskinstance.py:616} INFO - Dependencies all met for <TaskInstance: co2_temperature_humidity_v3.insert_to_db 2019-08-20T14:04:27.569403+00:00 [queued]>
[2019-08-20 17:04:46,914] {taskinstance.py:834} INFO - 
--------------------------------------------------------------------------------
[2019-08-20 17:04:46,914] {taskinstance.py:835} INFO - Starting attempt 1 of 1
[2019-08-20 17:04:46,914] {taskinstance.py:836} INFO - 
--------------------------------------------------------------------------------
[2019-08-20 17:04:46,925] {taskinstance.py:855} INFO - Executing <Task(PythonOperator): insert_to_db> on 2019-08-20T14:04:27.569403+00:00
[2019-08-20 17:04:46,925] {base_task_runner.py:133} INFO - Running: ['airflow', 'run', 'co2_temperature_humidity_v3', 'insert_to_db', '2019-08-20T14:04:27.569403+00:00', '--job_id', '1556', '--pool', 'default_pool', '--raw', '-sd', 'DAGS_FOLDER/new_one_v3.py', '--cfg_path', '/tmp/tmp8K3_Mg']
[2019-08-20 17:04:47,681] {base_task_runner.py:115} INFO - Job 1556: Subtask insert_to_db [2019-08-20 17:04:47,681] {__init__.py:51} INFO - Using executor SequentialExecutor
[2019-08-20 17:04:48,013] {base_task_runner.py:115} INFO - Job 1556: Subtask insert_to_db [2019-08-20 17:04:48,012] {dagbag.py:90} INFO - Filling up the DagBag from /home/andrian/airflow/dags/new_one_v3.py
[2019-08-20 17:04:48,022] {base_task_runner.py:115} INFO - Job 1556: Subtask insert_to_db /home/andrian/.local/lib/python2.7/site-packages/psycopg2/__init__.py:144: UserWarning: The psycopg2 wheel package will be renamed from release 2.8; in order to keep installing from binary please use "pip install psycopg2-binary" instead. For details see: <http://initd.org/psycopg/docs/install.html#binary-install-from-pypi>.
[2019-08-20 17:04:48,022] {base_task_runner.py:115} INFO - Job 1556: Subtask insert_to_db   """)
[2019-08-20 17:04:48,022] {base_task_runner.py:115} INFO - Job 1556: Subtask insert_to_db /home/andrian/.local/lib/python2.7/site-packages/airflow/utils/helpers.py:425: DeprecationWarning: Importing 'PostgresHook' directly from 'airflow.hooks' has been deprecated. Please import from 'airflow.hooks.[operator_module]' instead. Support for direct imports will be dropped entirely in Airflow 2.0.
[2019-08-20 17:04:48,023] {base_task_runner.py:115} INFO - Job 1556: Subtask insert_to_db   DeprecationWarning)
[2019-08-20 17:04:48,160] {base_task_runner.py:115} INFO - Job 1556: Subtask insert_to_db [2019-08-20 17:04:48,160] {cli.py:516} INFO - Running <TaskInstance: co2_temperature_humidity_v3.insert_to_db 2019-08-20T14:04:27.569403+00:00 [running]> on host alex-HP-EliteBook-820-G3
[2019-08-20 17:04:48,167] {python_operator.py:105} INFO - Exporting the following env vars:
AIRFLOW_CTX_TASK_ID=insert_to_db
AIRFLOW_CTX_DAG_ID=co2_temperature_humidity_v3
AIRFLOW_CTX_EXECUTION_DATE=2019-08-20T14:04:27.569403+00:00
AIRFLOW_CTX_DAG_RUN_ID=manual__2019-08-20T14:04:27.569403+00:00
[2019-08-20 17:04:48,189] {logging_mixin.py:95} INFO - [[34m2019-08-20 17:04:48,188[0m] {[34mbase_hook.py:[0m84} INFO[0m - Using connection to: [1mid: postgres_default. Host: localhost, Port: None, Schema: testdb, Login: andrian, Password: XXXXXXXX, extra: {}[0m[0m
[2019-08-20 17:04:48,198] {taskinstance.py:1047} ERROR - invalid input syntax for type timestamp with time zone: "ts"
LINE 1: ...ts, metric_id, observed_value, sensor_id) VALUES ('ts','metr...
                                                             ^
Traceback (most recent call last):
  File "/home/andrian/.local/lib/python2.7/site-packages/airflow/models/taskinstance.py", line 922, in _run_raw_task
    result = task_copy.execute(context=context)
  File "/home/andrian/.local/lib/python2.7/site-packages/airflow/operators/python_operator.py", line 113, in execute
    return_value = self.execute_callable()
  File "/home/andrian/.local/lib/python2.7/site-packages/airflow/operators/python_operator.py", line 118, in execute_callable
    return self.python_callable(*self.op_args, **self.op_kwargs)
  File "/home/andrian/airflow/dags/new_one_v3.py", line 63, in insert
    rows=[tuple(x) for x in data.values])
  File "/home/andrian/.local/lib/python2.7/site-packages/airflow/hooks/dbapi_hook.py", line 256, in insert_rows
    cur.execute(sql, values)
DataError: invalid input syntax for type timestamp with time zone: "ts"
LINE 1: ...ts, metric_id, observed_value, sensor_id) VALUES ('ts','metr...
                                                             ^

[2019-08-20 17:04:48,199] {taskinstance.py:1078} INFO - Marking task as FAILED.
[2019-08-20 17:04:48,211] {base_task_runner.py:115} INFO - Job 1556: Subtask insert_to_db Traceback (most recent call last):
[2019-08-20 17:04:48,211] {base_task_runner.py:115} INFO - Job 1556: Subtask insert_to_db   File "/home/andrian/.local/bin/airflow", line 32, in <module>
[2019-08-20 17:04:48,211] {base_task_runner.py:115} INFO - Job 1556: Subtask insert_to_db     args.func(args)
[2019-08-20 17:04:48,212] {base_task_runner.py:115} INFO - Job 1556: Subtask insert_to_db   File "/home/andrian/.local/lib/python2.7/site-packages/airflow/utils/cli.py", line 74, in wrapper
[2019-08-20 17:04:48,212] {base_task_runner.py:115} INFO - Job 1556: Subtask insert_to_db     return f(*args, **kwargs)
[2019-08-20 17:04:48,212] {base_task_runner.py:115} INFO - Job 1556: Subtask insert_to_db   File "/home/andrian/.local/lib/python2.7/site-packages/airflow/bin/cli.py", line 522, in run
[2019-08-20 17:04:48,213] {base_task_runner.py:115} INFO - Job 1556: Subtask insert_to_db     _run(args, dag, ti)
[2019-08-20 17:04:48,213] {base_task_runner.py:115} INFO - Job 1556: Subtask insert_to_db   File "/home/andrian/.local/lib/python2.7/site-packages/airflow/bin/cli.py", line 440, in _run
[2019-08-20 17:04:48,213] {base_task_runner.py:115} INFO - Job 1556: Subtask insert_to_db     pool=args.pool,
[2019-08-20 17:04:48,214] {base_task_runner.py:115} INFO - Job 1556: Subtask insert_to_db   File "/home/andrian/.local/lib/python2.7/site-packages/airflow/utils/db.py", line 74, in wrapper
[2019-08-20 17:04:48,214] {base_task_runner.py:115} INFO - Job 1556: Subtask insert_to_db     return func(*args, **kwargs)
[2019-08-20 17:04:48,214] {base_task_runner.py:115} INFO - Job 1556: Subtask insert_to_db   File "/home/andrian/.local/lib/python2.7/site-packages/airflow/models/taskinstance.py", line 922, in _run_raw_task
[2019-08-20 17:04:48,215] {base_task_runner.py:115} INFO - Job 1556: Subtask insert_to_db     result = task_copy.execute(context=context)
[2019-08-20 17:04:48,215] {base_task_runner.py:115} INFO - Job 1556: Subtask insert_to_db   File "/home/andrian/.local/lib/python2.7/site-packages/airflow/operators/python_operator.py", line 113, in execute
[2019-08-20 17:04:48,215] {base_task_runner.py:115} INFO - Job 1556: Subtask insert_to_db     return_value = self.execute_callable()
[2019-08-20 17:04:48,215] {base_task_runner.py:115} INFO - Job 1556: Subtask insert_to_db   File "/home/andrian/.local/lib/python2.7/site-packages/airflow/operators/python_operator.py", line 118, in execute_callable
[2019-08-20 17:04:48,216] {base_task_runner.py:115} INFO - Job 1556: Subtask insert_to_db     return self.python_callable(*self.op_args, **self.op_kwargs)
[2019-08-20 17:04:48,216] {base_task_runner.py:115} INFO - Job 1556: Subtask insert_to_db   File "/home/andrian/airflow/dags/new_one_v3.py", line 63, in insert
[2019-08-20 17:04:48,216] {base_task_runner.py:115} INFO - Job 1556: Subtask insert_to_db     rows=[tuple(x) for x in data.values])
[2019-08-20 17:04:48,216] {base_task_runner.py:115} INFO - Job 1556: Subtask insert_to_db   File "/home/andrian/.local/lib/python2.7/site-packages/airflow/hooks/dbapi_hook.py", line 256, in insert_rows
[2019-08-20 17:04:48,217] {base_task_runner.py:115} INFO - Job 1556: Subtask insert_to_db     cur.execute(sql, values)
[2019-08-20 17:04:48,217] {base_task_runner.py:115} INFO - Job 1556: Subtask insert_to_db psycopg2.DataError: invalid input syntax for type timestamp with time zone: "ts"
[2019-08-20 17:04:48,217] {base_task_runner.py:115} INFO - Job 1556: Subtask insert_to_db LINE 1: ...ts, metric_id, observed_value, sensor_id) VALUES ('ts','metr...
[2019-08-20 17:04:48,218] {base_task_runner.py:115} INFO - Job 1556: Subtask insert_to_db                                                              ^
[2019-08-20 17:04:48,218] {base_task_runner.py:115} INFO - Job 1556: Subtask insert_to_db 
[2019-08-20 17:04:51,897] {logging_mixin.py:95} INFO - [[34m2019-08-20 17:04:51,895[0m] {[34mlocal_task_job.py:[0m105} INFO[0m - Task exited with return code 1[0m
