[2019-08-20 12:35:33,324] {taskinstance.py:616} INFO - Dependencies all met for <TaskInstance: co2.insert_to_db 2019-03-17T18:00:00+00:00 [queued]>
[2019-08-20 12:35:33,334] {taskinstance.py:616} INFO - Dependencies all met for <TaskInstance: co2.insert_to_db 2019-03-17T18:00:00+00:00 [queued]>
[2019-08-20 12:35:33,334] {taskinstance.py:834} INFO - 
--------------------------------------------------------------------------------
[2019-08-20 12:35:33,335] {taskinstance.py:835} INFO - Starting attempt 1 of 1
[2019-08-20 12:35:33,335] {taskinstance.py:836} INFO - 
--------------------------------------------------------------------------------
[2019-08-20 12:35:33,344] {taskinstance.py:855} INFO - Executing <Task(PythonOperator): insert_to_db> on 2019-03-17T18:00:00+00:00
[2019-08-20 12:35:33,344] {base_task_runner.py:133} INFO - Running: ['airflow', 'run', 'co2', 'insert_to_db', '2019-03-17T18:00:00+00:00', '--job_id', '436', '--pool', 'default_pool', '--raw', '-sd', 'DAGS_FOLDER/read_save_insert.py', '--cfg_path', '/tmp/tmp8tnDXR']
[2019-08-20 12:35:34,071] {base_task_runner.py:115} INFO - Job 436: Subtask insert_to_db [2019-08-20 12:35:34,070] {__init__.py:51} INFO - Using executor SequentialExecutor
[2019-08-20 12:35:34,426] {base_task_runner.py:115} INFO - Job 436: Subtask insert_to_db [2019-08-20 12:35:34,425] {dagbag.py:90} INFO - Filling up the DagBag from /home/andrian/airflow/dags/read_save_insert.py
[2019-08-20 12:35:34,435] {base_task_runner.py:115} INFO - Job 436: Subtask insert_to_db /home/andrian/.local/lib/python2.7/site-packages/psycopg2/__init__.py:144: UserWarning: The psycopg2 wheel package will be renamed from release 2.8; in order to keep installing from binary please use "pip install psycopg2-binary" instead. For details see: <http://initd.org/psycopg/docs/install.html#binary-install-from-pypi>.
[2019-08-20 12:35:34,435] {base_task_runner.py:115} INFO - Job 436: Subtask insert_to_db   """)
[2019-08-20 12:35:34,436] {base_task_runner.py:115} INFO - Job 436: Subtask insert_to_db /home/andrian/.local/lib/python2.7/site-packages/airflow/utils/helpers.py:425: DeprecationWarning: Importing 'PostgresHook' directly from 'airflow.hooks' has been deprecated. Please import from 'airflow.hooks.[operator_module]' instead. Support for direct imports will be dropped entirely in Airflow 2.0.
[2019-08-20 12:35:34,436] {base_task_runner.py:115} INFO - Job 436: Subtask insert_to_db   DeprecationWarning)
[2019-08-20 12:35:34,576] {base_task_runner.py:115} INFO - Job 436: Subtask insert_to_db [2019-08-20 12:35:34,575] {cli.py:516} INFO - Running <TaskInstance: co2.insert_to_db 2019-03-17T18:00:00+00:00 [running]> on host alex-HP-EliteBook-820-G3
[2019-08-20 12:35:34,583] {python_operator.py:105} INFO - Exporting the following env vars:
AIRFLOW_CTX_TASK_ID=insert_to_db
AIRFLOW_CTX_DAG_ID=co2
AIRFLOW_CTX_EXECUTION_DATE=2019-03-17T18:00:00+00:00
AIRFLOW_CTX_DAG_RUN_ID=scheduled__2019-03-17T18:00:00+00:00
[2019-08-20 12:35:34,598] {logging_mixin.py:95} INFO - [[34m2019-08-20 12:35:34,597[0m] {[34mbase_hook.py:[0m84} INFO[0m - Using connection to: [1mid: postgres_default. Host: localhost, Port: None, Schema: testdb, Login: andrian, Password: XXXXXXXX, extra: {}[0m[0m
[2019-08-20 12:35:34,614] {logging_mixin.py:95} INFO - [[34m2019-08-20 12:35:34,613[0m] {[34mdbapi_hook.py:[0m264} INFO[0m - Done loading. Loaded a total of 1 rows[0m
[2019-08-20 12:35:34,615] {python_operator.py:114} INFO - Done. Returned value was: None
[2019-08-20 12:35:38,313] {logging_mixin.py:95} INFO - [[34m2019-08-20 12:35:38,312[0m] {[34mlocal_task_job.py:[0m105} INFO[0m - Task exited with return code 0[0m
