[2019-08-20 14:48:33,839] {taskinstance.py:616} INFO - Dependencies all met for <TaskInstance: co2_temperature_humidity.read_and_transform 2019-08-07T18:00:00+00:00 [queued]>
[2019-08-20 14:48:33,843] {taskinstance.py:616} INFO - Dependencies all met for <TaskInstance: co2_temperature_humidity.read_and_transform 2019-08-07T18:00:00+00:00 [queued]>
[2019-08-20 14:48:33,843] {taskinstance.py:834} INFO - 
--------------------------------------------------------------------------------
[2019-08-20 14:48:33,843] {taskinstance.py:835} INFO - Starting attempt 1 of 1
[2019-08-20 14:48:33,843] {taskinstance.py:836} INFO - 
--------------------------------------------------------------------------------
[2019-08-20 14:48:33,853] {taskinstance.py:855} INFO - Executing <Task(PythonOperator): read_and_transform> on 2019-08-07T18:00:00+00:00
[2019-08-20 14:48:33,853] {base_task_runner.py:133} INFO - Running: ['airflow', 'run', 'co2_temperature_humidity', 'read_and_transform', '2019-08-07T18:00:00+00:00', '--job_id', '1388', '--pool', 'default_pool', '--raw', '-sd', 'DAGS_FOLDER/new_one.py', '--cfg_path', '/tmp/tmplhPCVO']
[2019-08-20 14:48:34,502] {base_task_runner.py:115} INFO - Job 1388: Subtask read_and_transform [2019-08-20 14:48:34,501] {__init__.py:51} INFO - Using executor SequentialExecutor
[2019-08-20 14:48:34,861] {base_task_runner.py:115} INFO - Job 1388: Subtask read_and_transform [2019-08-20 14:48:34,860] {dagbag.py:90} INFO - Filling up the DagBag from /home/andrian/airflow/dags/new_one.py
[2019-08-20 14:48:34,871] {base_task_runner.py:115} INFO - Job 1388: Subtask read_and_transform /home/andrian/.local/lib/python2.7/site-packages/psycopg2/__init__.py:144: UserWarning: The psycopg2 wheel package will be renamed from release 2.8; in order to keep installing from binary please use "pip install psycopg2-binary" instead. For details see: <http://initd.org/psycopg/docs/install.html#binary-install-from-pypi>.
[2019-08-20 14:48:34,871] {base_task_runner.py:115} INFO - Job 1388: Subtask read_and_transform   """)
[2019-08-20 14:48:34,871] {base_task_runner.py:115} INFO - Job 1388: Subtask read_and_transform /home/andrian/.local/lib/python2.7/site-packages/airflow/utils/helpers.py:425: DeprecationWarning: Importing 'PostgresHook' directly from 'airflow.hooks' has been deprecated. Please import from 'airflow.hooks.[operator_module]' instead. Support for direct imports will be dropped entirely in Airflow 2.0.
[2019-08-20 14:48:34,872] {base_task_runner.py:115} INFO - Job 1388: Subtask read_and_transform   DeprecationWarning)
[2019-08-20 14:48:35,020] {base_task_runner.py:115} INFO - Job 1388: Subtask read_and_transform [2019-08-20 14:48:35,019] {cli.py:516} INFO - Running <TaskInstance: co2_temperature_humidity.read_and_transform 2019-08-07T18:00:00+00:00 [running]> on host alex-HP-EliteBook-820-G3
[2019-08-20 14:48:35,027] {python_operator.py:105} INFO - Exporting the following env vars:
AIRFLOW_CTX_TASK_ID=read_and_transform
AIRFLOW_CTX_DAG_ID=co2_temperature_humidity
AIRFLOW_CTX_EXECUTION_DATE=2019-08-07T18:00:00+00:00
AIRFLOW_CTX_DAG_RUN_ID=scheduled__2019-08-07T18:00:00+00:00
[2019-08-20 14:48:35,305] {python_operator.py:114} INFO - Done. Returned value was: None
[2019-08-20 14:48:38,849] {logging_mixin.py:95} INFO - [[34m2019-08-20 14:48:38,848[0m] {[34mlocal_task_job.py:[0m105} INFO[0m - Task exited with return code 0[0m
