[2019-08-20 14:12:50,963] {taskinstance.py:616} INFO - Dependencies all met for <TaskInstance: co2_temperature_humidity.read_and_transform 2019-03-27T18:00:00+00:00 [queued]>
[2019-08-20 14:12:50,967] {taskinstance.py:616} INFO - Dependencies all met for <TaskInstance: co2_temperature_humidity.read_and_transform 2019-03-27T18:00:00+00:00 [queued]>
[2019-08-20 14:12:50,967] {taskinstance.py:834} INFO - 
--------------------------------------------------------------------------------
[2019-08-20 14:12:50,967] {taskinstance.py:835} INFO - Starting attempt 1 of 1
[2019-08-20 14:12:50,967] {taskinstance.py:836} INFO - 
--------------------------------------------------------------------------------
[2019-08-20 14:12:50,978] {taskinstance.py:855} INFO - Executing <Task(PythonOperator): read_and_transform> on 2019-03-27T18:00:00+00:00
[2019-08-20 14:12:50,978] {base_task_runner.py:133} INFO - Running: ['airflow', 'run', 'co2_temperature_humidity', 'read_and_transform', '2019-03-27T18:00:00+00:00', '--job_id', '1118', '--pool', 'default_pool', '--raw', '-sd', 'DAGS_FOLDER/new_one.py', '--cfg_path', '/tmp/tmpbchmmf']
[2019-08-20 14:12:51,879] {base_task_runner.py:115} INFO - Job 1118: Subtask read_and_transform [2019-08-20 14:12:51,872] {__init__.py:51} INFO - Using executor SequentialExecutor
[2019-08-20 14:12:52,292] {base_task_runner.py:115} INFO - Job 1118: Subtask read_and_transform [2019-08-20 14:12:52,291] {dagbag.py:90} INFO - Filling up the DagBag from /home/andrian/airflow/dags/new_one.py
[2019-08-20 14:12:52,301] {base_task_runner.py:115} INFO - Job 1118: Subtask read_and_transform /home/andrian/.local/lib/python2.7/site-packages/psycopg2/__init__.py:144: UserWarning: The psycopg2 wheel package will be renamed from release 2.8; in order to keep installing from binary please use "pip install psycopg2-binary" instead. For details see: <http://initd.org/psycopg/docs/install.html#binary-install-from-pypi>.
[2019-08-20 14:12:52,301] {base_task_runner.py:115} INFO - Job 1118: Subtask read_and_transform   """)
[2019-08-20 14:12:52,301] {base_task_runner.py:115} INFO - Job 1118: Subtask read_and_transform /home/andrian/.local/lib/python2.7/site-packages/airflow/utils/helpers.py:425: DeprecationWarning: Importing 'PostgresHook' directly from 'airflow.hooks' has been deprecated. Please import from 'airflow.hooks.[operator_module]' instead. Support for direct imports will be dropped entirely in Airflow 2.0.
[2019-08-20 14:12:52,302] {base_task_runner.py:115} INFO - Job 1118: Subtask read_and_transform   DeprecationWarning)
[2019-08-20 14:12:52,454] {base_task_runner.py:115} INFO - Job 1118: Subtask read_and_transform [2019-08-20 14:12:52,453] {cli.py:516} INFO - Running <TaskInstance: co2_temperature_humidity.read_and_transform 2019-03-27T18:00:00+00:00 [running]> on host alex-HP-EliteBook-820-G3
[2019-08-20 14:12:52,461] {python_operator.py:105} INFO - Exporting the following env vars:
AIRFLOW_CTX_TASK_ID=read_and_transform
AIRFLOW_CTX_DAG_ID=co2_temperature_humidity
AIRFLOW_CTX_EXECUTION_DATE=2019-03-27T18:00:00+00:00
AIRFLOW_CTX_DAG_RUN_ID=scheduled__2019-03-27T18:00:00+00:00
[2019-08-20 14:12:52,562] {python_operator.py:114} INFO - Done. Returned value was: None
[2019-08-20 14:12:55,965] {logging_mixin.py:95} INFO - [[34m2019-08-20 14:12:55,964[0m] {[34mlocal_task_job.py:[0m105} INFO[0m - Task exited with return code 0[0m
